[
  {
    "name": "Inacademi",
    "stack": [
      "Django",
      "React",
      "Postgresql"
    ],
    "description": "Online psychology assessment. Using RIASEC for personality test, CIFT and SPM for intelligence test. Built using React, Django, and Postgresql.",
    "relatedLink": "https://gitlab.com/irbahhana/cloud-computing-uq",
    "img": true
  },
  {
    "name": "Fableous",
    "stack": [
      "React",
      "Django",
      "Postgresql",
      "Python",
      "Javascript"
    ],
    "description": "Fableous stands as a collaborative storytelling platform that helps users develop the necessary communicative skills to actively express their emotions, opinions and concerns in a supportive environment.",
    "relatedLink": "https://gitlab.com/todo-teamname/fableous",
    "img": true
  },
  {
    "name": "Moodle Attendance Plugin",
    "stack": [
      "PHP",
      "Moodle"
    ],
    "description": "A modification of moodle attendance plugin to display activity and frontend redesign.",
    "relatedLink": "https://gitlab.com/irbahhana/attendance-moodle-plugin",
    "img": true
  },
  {
    "name": "Webby",
    "stack": [
      "React",
      "Javascript",
      "Styled Components",
      "Material UI"
    ],
    "description": "My personal static website built with react and love. hosted in gitlab pages.",
    "relatedLink": "https://irbahhana.gitlab.io",
    "img": true
  },
  {
    "name": "Scoot it!",
    "stack": [
      "Django",
      "Python",
      "HTML",
      "CSS"
    ],
    "description": "A navigation optimizer built with my friend Danny and Rizal.",
    "relatedLink": "https://gitlab.com/colony-group/scoot",
    "img": true
  },
  {
    "name": "HappyFresh Fleet Tracker",
    "stack": [
      "Figma"
    ],
    "description": "A Tracker for drivers made for HappyFresh. Customer can track their order in real-time giving worry-free shopping experience. I was in charge of the design and user research.",
    "relatedLink": "https://www.figma.com/proto/LriGKlRLvLLpoHsgdsLdaX/HF-Customer-Fleet-tracker?node-id=1%3A3&scaling=min-zoom&page-id=0%3A1&starting-point-node-id=1%3A3",
    "img": true
  }
]
